Data Visualisation
…
---

.panelset[

.panel[.panel-name[Codes]

]

.panel[.panel-name[Output]

```
## # A tibble: 344 × 8
##    species island    bill_length_mm bill_depth_mm flipper_length_…
##    <chr>   <chr>              <dbl>         <dbl>            <dbl>
##  1 Adelie  Torgersen           39.1          18.7              181
##  2 Adelie  Torgersen           39.5          17.4              186
##  3 Adelie  Torgersen           40.3          18                195
##  4 Adelie  Torgersen           NA            NA                 NA
##  5 Adelie  Torgersen           36.7          19.3              193
##  6 Adelie  Torgersen           39.3          20.6              190
##  7 Adelie  Torgersen           38.9          17.8              181
##  8 Adelie  Torgersen           39.2          19.6              195
##  9 Adelie  Torgersen           34.1          18.1              193
## 10 Adelie  Torgersen           42            20.2              190
## # … with 334 more rows, and 3 more variables: body_mass_g <dbl>,
## #   sex <chr>, year <dbl>
```
…
# How to have a data of only Gentoo penguins?

---

.panelset[

.panel[.panel-name[Codes]

]

.panel[.panel-name[Output]

```
## # A tibble: 124 × 8
##    species island bill_length_mm bill_depth_mm flipper_length_mm
##    <chr>   <chr>           <dbl>         <dbl>             <dbl>
##  1 Gentoo  Biscoe           46.1          13.2               211
##  2 Gentoo  Biscoe           50            16.3               230
##  3 Gentoo  Biscoe           48.7          14.1               210
##  4 Gentoo  Biscoe           50            15.2               218
##  5 Gentoo  Biscoe           47.6          14.5               215
##  6 Gentoo  Biscoe           46.5          13.5               210
##  7 Gentoo  Biscoe           45.4          14.6               211
##  8 Gentoo  Biscoe           46.7          15.3               219
##  9 Gentoo  Biscoe           43.3          13.4               209
## 10 Gentoo  Biscoe           46.8          15.4               215
## # … with 114 more rows, and 3 more variables: body_mass_g <dbl>,
## #   sex <chr>, year <dbl>
```
…
# How to have a data of penguins with bill length more than 43 mm?

---

.panelset[

.panel[.panel-name[Codes]

]

.panel[.panel-name[Output]

```
## # A tibble: 188 × 8
##    species island    bill_length_mm bill_depth_mm flipper_length_…
##    <chr>   <chr>              <dbl>         <dbl>            <dbl>
##  1 Adelie  Torgersen           46            21.5              194
##  2 Adelie  Dream               44.1          19.7              196
##  3 Adelie  Torgersen           45.8          18.9              197
##  4 Adelie  Dream               43.2          18.5              192
##  5 Adelie  Biscoe              43.2          19                197
##  6 Adelie  Biscoe              45.6          20.3              191
##  7 Adelie  Torgersen           44.1          18                210
##  8 Adelie  Torgersen           43.1          19.2              197
##  9 Gentoo  Biscoe              46.1          13.2              211
## 10 Gentoo  Biscoe              50            16.3              230
## # … with 178 more rows, and 3 more variables: body_mass_g <dbl>,
## #   sex <chr>, year <dbl>
```
…
.panel[.panel-name[Codes]

```r
penguins %>% 
  filter(species == "Gentoo",
         bill_length_mm > 50)
```
]

.panel[.panel-name[Output]

```
## # A tibble: 22 × 8
##    species island bill_length_mm bill_depth_mm flipper_length_mm
##    <chr>   <chr>           <dbl>         <dbl>             <dbl>
##  1 Gentoo  Biscoe           50.2          14.3               218
##  2 Gentoo  Biscoe           59.6          17                 230
##  3 Gentoo  Biscoe           50.5          15.9               222
##  4 Gentoo  Biscoe           50.5          15.9               225
##  5 Gentoo  Biscoe           50.1          15                 225
##  6 Gentoo  Biscoe           50.4          15.3               224
##  7 Gentoo  Biscoe           54.3          15.7               231
##  8 Gentoo  Biscoe           50.7          15                 223
##  9 Gentoo  Biscoe           51.1          16.3               220
## 10 Gentoo  Biscoe           52.5          15.6               221
## # … with 12 more rows, and 3 more variables: body_mass_g <dbl>,
## #   sex <chr>, year <dbl>
```
…
# How to have only `species` variable in data?

---

.panelset[

.panel[.panel-name[Codes]

]

.panel[.panel-name[Output]

```
## # A tibble: 344 × 1
##    species
##    <chr>  
##  1 Adelie 
##  2 Adelie 
##  3 Adelie 
##  4 Adelie 
##  5 Adelie 
##  6 Adelie 
##  7 Adelie 
##  8 Adelie 
##  9 Adelie 
## 10 Adelie 
## # … with 334 more rows
```
…
# How to have a specific range of variables in data?

---

.panelset[

.panel[.panel-name[Codes]

]

.panel[.panel-name[Output]

```
## # A tibble: 344 × 4
##    species island    bill_length_mm bill_depth_mm
##    <chr>   <chr>              <dbl>         <dbl>
##  1 Adelie  Torgersen           39.1          18.7
##  2 Adelie  Torgersen           39.5          17.4
##  3 Adelie  Torgersen           40.3          18  
##  4 Adelie  Torgersen           NA            NA  
##  5 Adelie  Torgersen           36.7          19.3
##  6 Adelie  Torgersen           39.3          20.6
##  7 Adelie  Torgersen           38.9          17.8
##  8 Adelie  Torgersen           39.2          19.6
##  9 Adelie  Torgersen           34.1          18.1
## 10 Adelie  Torgersen           42            20.2
## # … with 334 more rows
```
…
.panelset[

.panel[.panel-name[Codes]

```r
penguins %>% 
  select(4:8)
```
]

.panel[.panel-name[Output]

```
## # A tibble: 344 × 5
##    bill_depth_mm flipper_length_mm body_mass_g sex     year
##            <dbl>             <dbl>       <dbl> <chr>  <dbl>
##  1          18.7               181        3750 male    2007
##  2          17.4               186        3800 female  2007
##  3          18                 195        3250 female  2007
##  4          NA                  NA          NA <NA>    2007
##  5          19.3               193        3450 female  2007
##  6          20.6               190        3650 male    2007
##  7          17.8               181        3625 female  2007
##  8          19.6               195        4675 male    2007
##  9          18.1               193        3475 <NA>    2007
## 10          20.2               190        4250 <NA>    2007
## # … with 334 more rows
```
…
.panelset[

.panel[.panel-name[Codes]

```r
penguins %>% 
  select(species, body_mass_g, year)
```
]

.panel[.panel-name[Output]

```
## # A tibble: 344 × 3
##    species body_mass_g  year
##    <chr>         <dbl> <dbl>
##  1 Adelie         3750  2007
##  2 Adelie         3800  2007
##  3 Adelie         3250  2007
##  4 Adelie           NA  2007
##  5 Adelie         3450  2007
##  6 Adelie         3650  2007
##  7 Adelie         3625  2007
##  8 Adelie         4675  2007
##  9 Adelie         3475  2007
## 10 Adelie         4250  2007
## # … with 334 more rows
```
…
.panelset[

.panel[.panel-name[Codes]

```r
penguins %>% 
  select(-c(species, body_mass_g, year))
```
]

.panel[.panel-name[Output]

```
## # A tibble: 344 × 5
##    island    bill_length_mm bill_depth_mm flipper_length_mm sex   
##    <chr>              <dbl>         <dbl>             <dbl> <chr> 
##  1 Torgersen           39.1          18.7               181 male  
##  2 Torgersen           39.5          17.4               186 female
##  3 Torgersen           40.3          18                 195 female
##  4 Torgersen           NA            NA                  NA <NA>  
##  5 Torgersen           36.7          19.3               193 female
##  6 Torgersen           39.3          20.6               190 male  
##  7 Torgersen           38.9          17.8               181 female
##  8 Torgersen           39.2          19.6               195 male  
##  9 Torgersen           34.1          18.1               193 <NA>  
## 10 Torgersen           42            20.2               190 <NA>  
## # … with 334 more rows
```
…
.panelset[

.panel[.panel-name[Codes]

```r
penguins %>% 
* mutate(body_mass_g = body_mass_g / 1000)
```
]

.panel[.panel-name[Output]

```
## # A tibble: 344 × 8
##    species island    bill_length_mm bill_depth_mm flipper_length_…
##    <chr>   <chr>              <dbl>         <dbl>            <dbl>
##  1 Adelie  Torgersen           39.1          18.7              181
##  2 Adelie  Torgersen           39.5          17.4              186
##  3 Adelie  Torgersen           40.3          18                195
##  4 Adelie  Torgersen           NA            NA                 NA
##  5 Adelie  Torgersen           36.7          19.3              193
##  6 Adelie  Torgersen           39.3          20.6              190
##  7 Adelie  Torgersen           38.9          17.8              181
##  8 Adelie  Torgersen           39.2          19.6              195
##  9 Adelie  Torgersen           34.1          18.1              193
## 10 Adelie  Torgersen           42            20.2              190
## # … with 334 more rows, and 3 more variables: body_mass_g <dbl>,
## #   sex <chr>, year <dbl>
```
…
.panelset[

.panel[.panel-name[Codes]

```r
penguins %>% 
  mutate(body_mass_g = body_mass_g / 1000, 
         bill = bill_length_mm * bill_depth_mm)
```
]

.panel[.panel-name[Output]

```
## # A tibble: 344 × 9
##    species island    bill_length_mm bill_depth_mm flipper_length_…
##    <chr>   <chr>              <dbl>         <dbl>            <dbl>
##  1 Adelie  Torgersen           39.1          18.7              181
##  2 Adelie  Torgersen           39.5          17.4              186
##  3 Adelie  Torgersen           40.3          18                195
##  4 Adelie  Torgersen           NA            NA                 NA
##  5 Adelie  Torgersen           36.7          19.3              193
##  6 Adelie  Torgersen           39.3          20.6              190
##  7 Adelie  Torgersen           38.9          17.8              181
##  8 Adelie  Torgersen           39.2          19.6              195
##  9 Adelie  Torgersen           34.1          18.1              193
## 10 Adelie  Torgersen           42            20.2              190
## # … with 334 more rows, and 4 more variables: body_mass_g <dbl>,
## #   sex <chr>, year <dbl>, bill <dbl>
```
…
.panel[.panel-name[Codes]

```r
penguins %>% 
  mutate(body_mass_g = body_mass_g / 1000,
         bill = bill_length_mm * bill_depth_mm) %>% 
  select(body_mass_g,
         bill)
```
]

.panel[.panel-name[Output]

```
## # A tibble: 344 × 2
##    body_mass_g  bill
##          <dbl> <dbl>
##  1        3.75  731.
##  2        3.8   687.
##  3        3.25  725.
##  4       NA      NA 
##  5        3.45  708.
##  6        3.65  810.
##  7        3.62  692.
##  8        4.68  768.
##  9        3.48  617.
## 10        4.25  848.
## # … with 334 more rows
```
…
.panelset[

.panel[.panel-name[Codes]

```r
penguins %>% 
* arrange(bill_length_mm)
```
]

.panel[.panel-name[Output]

```
## # A tibble: 344 × 8
##    species island    bill_length_mm bill_depth_mm flipper_length_…
##    <chr>   <chr>              <dbl>         <dbl>            <dbl>
##  1 Adelie  Dream               32.1          15.5              188
##  2 Adelie  Dream               33.1          16.1              178
##  3 Adelie  Torgersen           33.5          19                190
##  4 Adelie  Dream               34            17.1              185
##  5 Adelie  Torgersen           34.1          18.1              193
##  6 Adelie  Torgersen           34.4          18.4              184
##  7 Adelie  Biscoe              34.5          18.1              187
##  8 Adelie  Torgersen           34.6          21.1              198
##  9 Adelie  Torgersen           34.6          17.2              189
## 10 Adelie  Biscoe              35            17.9              190
## # … with 334 more rows, and 3 more variables: body_mass_g <dbl>,
## #   sex <chr>, year <dbl>
```
…
.panelset[

.panel[.panel-name[Codes]

```r
penguins %>% 
* arrange(desc(bill_length_mm))
```
]

.panel[.panel-name[Output]

```
## # A tibble: 344 × 8
##    species   island bill_length_mm bill_depth_mm flipper_length_mm
##    <chr>     <chr>           <dbl>         <dbl>             <dbl>
##  1 Gentoo    Biscoe           59.6          17                 230
##  2 Chinstrap Dream            58            17.8               181
##  3 Gentoo    Biscoe           55.9          17                 228
##  4 Chinstrap Dream            55.8          19.8               207
##  5 Gentoo    Biscoe           55.1          16                 230
##  6 Gentoo    Biscoe           54.3          15.7               231
##  7 Chinstrap Dream            54.2          20.8               201
##  8 Chinstrap Dream            53.5          19.9               205
##  9 Gentoo    Biscoe           53.4          15.8               219
## 10 Chinstrap Dream            52.8          20                 205
## # … with 334 more rows, and 3 more variables: body_mass_g <dbl>,
## #   sex <chr>, year <dbl>
```
…
.panelset[

.panel[.panel-name[Codes]

```r
penguins %>% 
  arrange(species)
```
]

.panel[.panel-name[Output]

```
## # A tibble: 344 × 8
##    species island    bill_length_mm bill_depth_mm flipper_length_…
##    <chr>   <chr>              <dbl>         <dbl>            <dbl>
##  1 Adelie  Torgersen           39.1          18.7              181
##  2 Adelie  Torgersen           39.5          17.4              186
##  3 Adelie  Torgersen           40.3          18                195
##  4 Adelie  Torgersen           NA            NA                 NA
##  5 Adelie  Torgersen           36.7          19.3              193
##  6 Adelie  Torgersen           39.3          20.6              190
##  7 Adelie  Torgersen           38.9          17.8              181
##  8 Adelie  Torgersen           39.2          19.6              195
##  9 Adelie  Torgersen           34.1          18.1              193
## 10 Adelie  Torgersen           42            20.2              190
## # … with 334 more rows, and 3 more variables: body_mass_g <dbl>,
## #   sex <chr>, year <dbl>
```
…
